CAMP,002
SCP,32105.64,78456.21,102.54
P,254.4223+75.2329+180.0000
1001,2004,86.2323,2375.45,89.2124
2004,3001,143.4635,1431.45,90.1233
3001,3201,87.2535,,
3001,3002,87.2535+88.2554,245.12,90.0525
3002,3202,165.4525,,
3001,4001,87.2535+248.2824,,89.4357
3001,4002,87.2535+187.2526,,89.5724
3002,4001,95.2528,,
3002,4002,265.1225,,
1001,2005,45.2724,1454.21,88.4512
2005,5004,87.2526,2573.21,87.4524
5004,5204,87.2546,,
5204,5404,272.5412,,
5004,5001,89.5425,1547.34,88.4427
5001,5201,158.3528,,
5201,5401,298.2854,,
5004,5007,88.2739,1543.21,88.2534
5007,5207,243.2834,,
5207,5407,276.2143,,
5007,5010,57.4025,1543.21,90.0442
5010,5210,282.4524,,
5210,5410,54.3542,,
