CAMP,b002
SCP,47828.89,83200.24,45.93
P,345.4221+28.5031+3200
1001,2005,88.0957,1265.20,89.5958
2005,5004,135.2250,121.35,91.3253
5004,5204,185.4407,,
5204,5404,80.4646,,
2005,5007,185.5107,713.25,89.5547
5007,5207,127.1022,,
5207,5407,73.3019,,
2005,5010,210.3742,165.28,89.1935
5010,5210,96.2706,,
5210,5410,78.4225,,
5004,5001,95.1242,630.25,91.0555
5001,5201,284.3939,,
5201,5401,79.5659,,
1001,2004,136.2750,489.26,90.2455
2004,3001,211.4525,1206.27,90.3426
3001,3201,48.2606,,
3001,3002,268.2413,1356.23,89.4403
3002,3202,188.2036,,
3001,4002,202.1941,,91.0058
3002,4002,50.4129,,
3001,4001,227.1640,,92.0035
3002,4001,70.2630,,
