左,橫坐標,22943.28
左,縱坐標,37073.96
左,標高,23.72
左,方位基準點方位角,
左,觀測所至目標水平角,2235
左,左觀測所至目標垂直角,20
右,橫坐標,22768.26
右,縱坐標,37991.58
右,標高,25.53
右,至方位基準點方位角,
右,右觀測所目標水平角,1436
右,右觀測所至目標垂直角,30
# O(R)-O(L) : d=934.16, a=3008.03(169^12'5.504")
# L=1305.30, R=1073.65
# <O(R)-T = 4444.03 / 249^58'35.504"
# <O(L)-T = 5243.03 / 294^55'19.004"
# MEAN = (21759.51, 37623.96, 53.26)
