CAMP,FASP
SCP,23213.00,31122.00,40.00
P,2012+48.1223+180°
1001,2004,178.0322,441.24,89.4142
2004,3001,276.4500,457.63,89.4308
3001,3201,268.0506,,
3001,4002,180.2338,,89.1245
3001,4001,207.3708,,89.0600
2004,3002,204.1438,365.25,90.1330
3002,3202,33.1218,,
3002,4002,199.3753,,
3002,4001,219.4245,,
1001,2005,85.0729,645.52,89.5739
2005,5004,107.0730,1302.84,90.1007
5004,5204,185.2400,,
5204,5404,93.1908,,
5004,5001,100.0045,256.32,89.4620
5001,5201,267.5145,,
5201,5401,89.4630,,
5004,5007,280.4438,321.00,89.3300
5007,5207,89.2253,,
5207,5407,84.2230,,
5007,5010,180.0323,1011.04,90.2338
5010,5210,91.4438,,
5210,5410,90.2338,,
# STATION:1 <--[SCP]      (15060.20 49770.19 25.65)
# STATION:2 <--[1]        (14229.89 49825.86 17.48)
# STATION:O1 <--[2]       (13578.55 50287.76 26.50)
# STATION:O2 <--[O1]      (14739.82 50498.30 24.18)
# STATION:O3 <--[O1]      (14157.62 50122.41 25.32)
# STATION:+ <--[O1]       (14004.18 50929.77 43.14)
# xxx STATION:+ <--[O2]   (14004.18 50929.77 24.18)
# STATION:T1 <--[O1]      (14356.28 50821.55 50.58)
# xxx STATION:T1 <--[O2]  (14356.28 50821.55 24.18)
# STATION:G2.1 <--[SCP]   (16401.74 50028.79 17.33)
# STATION:G1.2 <--[G2.1]  (16111.39 50228.92 16.23)
# STATION:G1.1 <--[G1.2]  (15944.47 50359.95 16.51)
# STATION:G2.2 <--[G2.1]  (16623.04 49930.03 16.21)
# STATION:G3.1 <--[G2.2]  (16958.66 49973.24 15.22)
# STATION:G3.2 <--[G3.1]  (17164.42 49883.59 16.47)
# <O-L1=5082.26(285^52'37.000")
# <O-L2=6175.82(347^23'23.000")
# <O-L3=5397.34(303^36'1.000")
# <O-L4=4895.56(275^22'31.000")
# <O-L5=5013.57(282^00'47.000")
# <O-L6=5043.78(283^42'46.000")
# <OA-1=3191.30(179^30'37.760")
# <OA-2=1048.76(58^59'34.148")
# <OA-3=231.19(13^00'16.339")
# <OA-4=2924.11(164^28'51.861")
# <OA-5=3094.64(174^04'24.371")
# <OA-6=3118.15(175^23'45.237")
# <O1-+=596.31(33^32'33.000") O1-+=770.28M
# <O2-+=5340.31(300^23'33.000") O2-+=852.84M
# <O1-S1=3391.58(190^46'34.000")
# <O2-S2=1423.31(80^03'40.500")
# <O1-T1=987.31(55^32'10.500") O1-T1=943.28M
# <O2-T1=5513.31(310^07'25.500") O2-T1=501.59M
# <G1.1-+=5090.96(286^21'59.240")
# <G1.2-+=5127.06(288^23'48.852")
# <G2.1-+=5166.15(290^35'44.661")
# <G2.2-+=5171.45(290^53'39.139")
# <G3.1-+=5118.93(287^56'22.629")
# <G3.2-+=5125.63(288^19'0.763")
