CAMP,FASP
SCP,16088.09,49212.24,19.86
P,324.4353
1001,2004,333.4545 ,1169.57 ,89.4316 
2004,2005,155.2030 ,832.22 ,90.3356 
2005,3001,211.3025 ,798.54 ,89.2121 
3001,3201,65.2601 , , 
3001,4001,4768 , ,+22 
3001,4002,5159 , ,+26 
3001,3002,5589 ,1180.2 ,-2 
3002,3202,3206 , , 
3002,4001,723 , , 
3002,4002,896 , , 
3001,3003,6055 ,602.21 ,-2 
3003,3203,4525 , , 
1001,5005,56.1653 ,874.72 ,90.1008 
5005,5205,193.1215 , , 
5205,5405,89.2300 , , 
5005,5003,103.3352 ,352.65 ,90.1053 
5003,5203,293.2545 , , 
5203,5403,109.2300 , , 
5003,5002,183.3312 ,212.2 ,89.5524 
5002,5202,245.3322 , , 
5202,5402,92.1125 , , 
5005,5006,273.0215 ,242.34 ,90.1653 
5006,5206,80.4630 , , 
5206,5406,80.3300 , , 
5006,5008,148.3645 ,338.39 ,90.1008 
5008,5208,121.1308 , , 
5208,5408,78.0753 , , 
5008,5009,210.5252 ,224.45 ,89.4053 
2004,5209,4875.01 ,100 ,90.0000 
5209,5409,71.3945 , , 
